dump.vcd
$date
	Sun May 24 15:33:31 2026
$end

$version
	Synopsys VCS version X-2025.06-SP1_Full64
$end

$timescale
	1ns
$end

$comment Csum: 1 64dc2453db7a26b0 $end


$scope module $unit $end
$upscope $end


$scope module top $end
$var reg 1 ! wr_clk_i $end
$var reg 1 " rd_clk_i $end
$var reg 1 # rst_i $end

$scope begin unnamed$$_vcs_5 $end
$upscope $end


$scope begin unnamed$$_vcs_0 $end
$upscope $end


$scope begin unnamed$$_vcs_1 $end
$upscope $end


$scope begin unnamed$$_vcs_2 $end
$upscope $end


$scope begin unnamed$$_vcs_3 $end
$upscope $end


$scope begin unnamed$$_vcs_4 $end
$upscope $end


$scope module pif $end
$var wire 1 $ rst_i $end
$var reg 1 % wr_en_i $end
$var reg 1 & rd_en_i $end
$var reg 16 ' wdata_i [15:0] $end
$var reg 16 ( rdata_o [15:0] $end
$var reg 1 ) full_o $end
$var reg 1 * empty_o $end
$var reg 1 + overflow_o $end
$var reg 1 , underflow_o $end
$var wire 1 - wr_clk_i $end
$var wire 1 . rd_clk_i $end
$var reg 32 / fail [31:0] $end

$scope task _$$txp______assert_unnamed$$_1 $end
$upscope $end


$scope task _$$txp______assert_unnamed$$_3 $end
$upscope $end


$scope task _$$txp______assert_unnamed$$_5 $end
$upscope $end


$scope task _$$txp______assert_unnamed$$_7 $end
$upscope $end


$scope task _$$txp______assert_unnamed$$_9 $end
$upscope $end


$scope task _$$txp_fail_action_unnamed$$_1 $end
$upscope $end


$scope task _$$txp_fail_action_unnamed$$_3 $end
$upscope $end


$scope task _$$txp_fail_action_unnamed$$_9 $end
$upscope $end


$scope task _$$txp_fail_action_unnamed$$_5 $end
$upscope $end


$scope task _$$txp_fail_action_unnamed$$_7 $end
$upscope $end

$upscope $end


$scope module dut $end
$var wire 1 - wr_clk_i $end
$var wire 1 . rd_clk_i $end
$var wire 1 $ rst_i $end
$var wire 1 0 wr_en_i $end
$var wire 1 1 rd_en_i $end
$var wire 16 2 wdata_i [15:0] $end
$var reg 16 3 rdata_o [15:0] $end
$var reg 1 4 full_o $end
$var reg 1 5 empty_o $end
$var reg 1 6 underflow_o $end
$var reg 1 7 overflow_o $end
$var reg 4 8 wr_ptr [3:0] $end
$var reg 4 9 rd_ptr [3:0] $end
$var reg 1 : rd_tflag $end
$var reg 1 ; wr_tflag $end
$var reg 4 < wr_ptr_rd_clk_i [3:0] $end
$var reg 4 = rd_ptr_wr_clk_i [3:0] $end
$var reg 1 > wr_tflag_rd_clk_i $end
$var reg 1 ? rd_tflag_wr_clk_i $end

$scope begin unnamed$$_0 $end
$upscope $end


$scope begin unnamed$$_1 $end
$upscope $end

$upscope $end

$upscope $end


$scope module uvm_pkg $end
$var time 64 @ setting_offset $end
$var reg 32 A uvm_global_random_seed [31:0] $end
$var reg 32 B UVM_UNBOUNDED_CONNECTIONS [31:0] $end
$var reg 1 C uvm_start_uvm_declarations $end
$var reg 32 D setting_verbosity [31:0] $end
$var reg 1 E is_verdi_set_verbosity_called $end
$upscope $end

$enddefinitions $end

#0
$dumpvars
0E
1C
bxxxxxxxxxxxxxxxxxxxxxxxxxxxxxxxxxxxxxxxxxxxxxxxxxxxxxxxxxxxxxxxx @
b11111111111111111111111111111111 B
b00000000000000000000000000000000 D
b01000010000001111100110001000111 A
0"
1#
0!
b00000000000000000000000000000000 /
b0000000000000000 (
b0000000000000000 '
15
04
07
0:
06
0;
0?
0>
b0000 9
bxxxxxxxxxxxxxxxx 3
b0000 8
b0000 =
b0000 <
b0000000000000000 2
01
00
0-
0.
1$
1*
0)
0+
0&
0,
0%
$end
#5
1!
1-
#10
1"
1.
0!
0-
#15
1!
1-
#20
0#
0$
0"
0.
0!
0-
#25
1!
1-
#30
1"
1.
0!
0-
#31
1&
11
#35
1!
1-
#40
0"
0.
0!
0-
#45
1!
1-
#50
1"
1.
0!
0-
16
1,
#51
0&
01
#55
1!
1-
#60
0"
0.
0!
0-
#65
1!
1-
#70
1"
1.
0!
0-
06
0,
#71
1&
11
#75
1!
1-
#80
0"
0.
0!
0-
#85
1!
1-
#90
1"
1.
0!
0-
16
1,
#91
0&
01
#95
1!
1-
#100
0"
0.
0!
0-
#105
1!
1-
#110
1"
1.
0!
0-
06
0,
#111
1&
11
#115
1!
1-
#120
0"
0.
0!
0-
#125
1!
1-
#130
1"
1.
0!
0-
16
1,
#131
0&
01
#135
1!
1-
#140
0"
0.
0!
0-
#145
1!
1-
#150
1"
1.
0!
0-
06
0,
#151
1&
11
#155
1!
1-
#160
0"
0.
0!
0-
#165
1!
1-
#170
1"
1.
0!
0-
16
1,
#171
0&
01
#175
1!
1-
#180
0"
0.
0!
0-
#185
1!
1-
#190
1"
1.
0!
0-
06
0,
#191
1&
11
#195
1!
1-
#200
0"
0.
0!
0-
#205
1!
1-
#210
1"
1.
0!
0-
16
1,
#211
0&
01
#215
1!
1-
#220
0"
0.
0!
0-
#225
1!
1-
#230
1"
1.
0!
0-
06
0,
#231
1&
11
#235
1!
1-
#240
0"
0.
0!
0-
#245
1!
1-
#250
1"
1.
0!
0-
16
1,
#251
0&
01
#255
1!
1-
#260
0"
0.
0!
0-
#265
1!
1-
#270
1"
1.
0!
0-
06
0,
#271
1&
11
#275
1!
1-
#280
0"
0.
0!
0-
#285
1!
1-
#290
1"
1.
0!
0-
16
1,
#291
0&
01
#295
1!
1-
#300
0"
0.
0!
0-
#305
1!
1-
#310
1"
1.
0!
0-
06
0,
#311
1&
11
#315
1!
1-
#320
0"
0.
0!
0-
#325
1!
1-
#330
1"
1.
0!
0-
16
1,
#331
0&
01
#335
1!
1-
#340
0"
0.
0!
0-
#345
1!
1-
#350
1"
1.
0!
0-
06
0,
#351
1&
11
#355
1!
1-
#360
0"
0.
0!
0-
#365
1!
1-
#370
1"
1.
0!
0-
16
1,
#371
0&
01
#375
1!
1-
#380
0"
0.
0!
0-
#385
1!
1-
#390
1"
1.
0!
0-
06
0,
#391
1&
11
#395
1!
1-
#400
0"
0.
0!
0-
#405
1!
1-
#410
1"
1.
0!
0-
16
1,
#411
0&
01
#415
1!
1-
#420
0"
0.
0!
0-
#425
1!
1-
#430
1"
1.
0!
0-
06
0,
#431
1&
11
#435
1!
1-
#440
0"
0.
0!
0-
#445
1!
1-
#450
1"
1.
0!
0-
16
1,
#451
0&
01
#455
1!
1-
#460
0"
0.
0!
0-
#465
1!
1-
#470
1"
1.
0!
0-
06
0,
#471
1&
11
#475
1!
1-
#480
0"
0.
0!
0-
#485
1!
1-
#490
1"
1.
0!
0-
16
1,
#491
0&
01
#495
1!
1-
#500
0"
0.
0!
0-
#505
1!
1-
#510
1"
1.
0!
0-
06
0,
#511
1&
11
#515
1!
1-
#520
0"
0.
0!
0-
#525
1!
1-
#530
1"
1.
0!
0-
16
1,
#531
0&
01
#535
1!
1-
#540
0"
0.
0!
0-
#545
1!
1-
#550
1"
1.
0!
0-
06
0,
#551
1&
11
#555
1!
1-
#560
0"
0.
0!
0-
#565
1!
1-
#570
1"
1.
0!
0-
16
1,
#571
0&
01
#575
1!
1-
#580
0"
0.
0!
0-
#585
1!
1-
#590
1"
1.
0!
0-
06
0,
#591
1&
11
#595
1!
1-
#600
0"
0.
0!
0-
#605
1!
1-
#610
1"
1.
0!
0-
16
1,
#611
0&
01
#615
1!
1-
#620
0"
0.
0!
0-
#625
1!
1-
#630
1"
1.
0!
0-
06
0,
#631
1&
11
#635
1!
1-
#640
0"
0.
0!
0-
#645
1!
1-
#650
1"
1.
0!
0-
16
1,
#651
0&
01
#655
1!
1-
#660
0"
0.
0!
0-
#665
1!
1-
#670
1"
1.
0!
0-
06
0,
#671
1&
11
#675
1!
1-
#680
0"
0.
0!
0-
#685
1!
1-
#690
1"
1.
0!
0-
16
1,
#691
0&
01
#695
1!
1-
#700
0"
0.
0!
0-
#705
1!
1-
#710
1"
1.
0!
0-
06
0,
